[
  {
    "id": 98642,
    "title": "Test Richard WP-CLI",
    "about": "Test Richard WP-CLI",
    "organizer": "Richard Blondel",
    "timestamp": "2021-04-30 12:13:01",
    "email": "rblondel@gmail.com",
    "address": "28 rue de Paris, 76600 Le Havre",
    "latitude": 6.814443,
    "longitude": 63.023457,
    "tags": [
      "exercitation",
      "ullamco",
      "non"
    ]
  }
]
